A01 13102944 14053780 23046378
A02 13863757 14184308 24735133
A03 28032737 29734265 29734265
A04 5797797 6255979 19103379
A05 10860655 10931221 23024318
A06 11130227 11147300 24352093
A07 3349816 5246736 24005151
A08 3865177 5246555 18912380
A09 15599005 15893562 33757815
A10 2916423 5311090 17299351
