Content-Type: text/x-zim-wiki
Wiki-Format: zim 0.4
Creation-Date: 2018-03-08T11:28:16+01:00

====== Connexion à REPET ======

adminigepp jeu. mars 08 11:08 ~/
$ GS            				 ## perso      dans .bashrc    alias GS='ssh tchausse@openstack.genouest.org'

Last login: Wed Feb 28 09:54:20 2018 from 147.99.177.165

-bash-4.2$ ssh root@192.168.100.90

Warning: Permanently added '192.168.100.90' (RSA) to the list of known hosts.
Last login: Tue Jan 23 16:35:22 2018 from 192.168.100.1
[root@Repet-host ~]# 
